-2,-2,K0qegu2eOTRkPrlKt6C1N0CM3Xo=,OUOGJyBd+o4sPTAtOqzxk6svQ70=
-1,-2,K0qegu2eOTRkPrlKt6C1N0CM3Xo=,ZhteykdVNxHJ0ygrsNrnwqrkIp0=
-2,-1,K0qegu2eOTRkPrlKt6C1N0CM3Xo=,3FhDMsFoWHSUwaPQmbx/OasaHr4=
-1,-1,K0qegu2eOTRkPrlKt6C1N0CM3Xo=,PgnsJu8KuvuuVFK3GYBulTpasw4=
