-22,0,h+sRmxp+HkEB6Jwef8BIMRFXDYo=,oVIlMoCuaY0YfFZYZZOW8eTllks=
-21,0,h+sRmxp+HkEB6Jwef8BIMRFXDYo=,O6xL33KjKv02A/U4M/BHjcyTYi8=
-20,0,h+sRmxp+HkEB6Jwef8BIMRFXDYo=,O6xL33KjKv02A/U4M/BHjcyTYi8=
-19,0,h+sRmxp+HkEB6Jwef8BIMRFXDYo=,thL674xTNC8BjGW8OKAihjCFtr8=
-3,0,h+sRmxp+HkEB6Jwef8BIMRFXDYo=,vki9IF1mL2yx5BqUwjAVmaff5Qw=
-2,0,h+sRmxp+HkEB6Jwef8BIMRFXDYo=,9kI2EOwYPvpTP6W+IiioxEA4o9c=
-1,0,h+sRmxp+HkEB6Jwef8BIMRFXDYo=,yqybOky+S+CC+ujig5XCYvIQovc=
-2,1,h+sRmxp+HkEB6Jwef8BIMRFXDYo=,3tJgFUzhif3hxTonCh7HJA0Ol78=
-1,1,h+sRmxp+HkEB6Jwef8BIMRFXDYo=,8435pXGLCl4YtsFhIK3QuLqYA1s=
