0,-3,h+sRmxp+HkEB6Jwef8BIMRFXDYo=,WAm3ksQLQNEZ9B4kC1CXfQz6OwE=
1,-3,h+sRmxp+HkEB6Jwef8BIMRFXDYo=,WAm3ksQLQNEZ9B4kC1CXfQz6OwE=
0,-2,h+sRmxp+HkEB6Jwef8BIMRFXDYo=,WAm3ksQLQNEZ9B4kC1CXfQz6OwE=
1,-2,h+sRmxp+HkEB6Jwef8BIMRFXDYo=,WAm3ksQLQNEZ9B4kC1CXfQz6OwE=
0,-1,h+sRmxp+HkEB6Jwef8BIMRFXDYo=,WAm3ksQLQNEZ9B4kC1CXfQz6OwE=
1,-1,h+sRmxp+HkEB6Jwef8BIMRFXDYo=,WAm3ksQLQNEZ9B4kC1CXfQz6OwE=
