0,0,Gf4vSn51v5YVIQDBG78E3lR6Rfg=,4U/jrFRgW+p23EkxnGNNXXiTiSc=
1,0,Gf4vSn51v5YVIQDBG78E3lR6Rfg=,gOjZa088IfgYb4GhxRID71pkx24=
0,1,Gf4vSn51v5YVIQDBG78E3lR6Rfg=,CYf35UTWsGh2kfyfWEwz1Fr7uEo=
1,1,Gf4vSn51v5YVIQDBG78E3lR6Rfg=,gOjZa088IfgYb4GhxRID71pkx24=
2,2,Gf4vSn51v5YVIQDBG78E3lR6Rfg=,w8iCEkdyJBzrc83K+SA1Pnc9z3I=
15,15,Gf4vSn51v5YVIQDBG78E3lR6Rfg=,w8iCEkdyJBzrc83K+SA1Pnc9z3I=
